[
  {
    "event": "MENS SINGLE",
    "category": "OVERALL",
    "page": 1,
    "totalPages": 17,
    "totalDocs": 166,
    "resultCount": 10
  },
  {
    "event": "MENS SINGLE",
    "category": "OVERALL",
    "page": 2,
    "totalPages": 17,
    "totalDocs": 166,
    "resultCount": 10
  },
  {
    "event": "MENS SINGLE",
    "category": "OVERALL",
    "page": 3,
    "totalPages": 17,
    "totalDocs": 166,
    "resultCount": 10
  },
  {
    "event": "MENS SINGLE",
    "category": "OVERALL",
    "page": 4,
    "totalPages": 17,
    "totalDocs": 166,
    "resultCount": 10
  },
  {
    "event": "MENS SINGLE",
    "category": "OVERALL",
    "page": 5,
    "totalPages": 17,
    "totalDocs": 166,
    "resultCount": 10
  },
  {
    "event": "MENS SINGLE",
    "category": "OVERALL",
    "page": 6,
    "totalPages": 17,
    "totalDocs": 166,
    "resultCount": 10
  },
  {
    "event": "MENS SINGLE",
    "category": "OVERALL",
    "page": 7,
    "totalPages": 17,
    "totalDocs": 166,
    "resultCount": 10
  },
  {
    "event": "MENS SINGLE",
    "category": "OVERALL",
    "page": 8,
    "totalPages": 17,
    "totalDocs": 166,
    "resultCount": 10
  },
  {
    "event": "MENS SINGLE",
    "category": "OVERALL",
    "page": 9,
    "totalPages": 17,
    "totalDocs": 166,
    "resultCount": 10
  },
  {
    "event": "MENS SINGLE",
    "category": "OVERALL",
    "page": 10,
    "totalPages": 17,
    "totalDocs": 166,
    "resultCount": 10
  },
  {
    "event": "MENS SINGLE",
    "category": "OVERALL",
    "page": 11,
    "totalPages": 17,
    "totalDocs": 166,
    "resultCount": 10
  },
  {
    "event": "MENS SINGLE",
    "category": "OVERALL",
    "page": 12,
    "totalPages": 17,
    "totalDocs": 166,
    "resultCount": 10
  },
  {
    "event": "MENS SINGLE",
    "category": "OVERALL",
    "page": 13,
    "totalPages": 17,
    "totalDocs": 166,
    "resultCount": 10
  },
  {
    "event": "MENS SINGLE",
    "category": "OVERALL",
    "page": 14,
    "totalPages": 17,
    "totalDocs": 166,
    "resultCount": 10
  },
  {
    "event": "MENS SINGLE",
    "category": "OVERALL",
    "page": 15,
    "totalPages": 17,
    "totalDocs": 166,
    "resultCount": 10
  },
  {
    "event": "MENS SINGLE",
    "category": "OVERALL",
    "page": 16,
    "totalPages": 17,
    "totalDocs": 166,
    "resultCount": 10
  },
  {
    "event": "MENS SINGLE",
    "category": "OVERALL",
    "page": 17,
    "totalPages": 17,
    "totalDocs": 166,
    "resultCount": 6
  },
  {
    "event": "MENS SINGLE",
    "category": "MENS SINGLE",
    "page": 1,
    "totalPages": 17,
    "totalDocs": 166,
    "resultCount": 10
  },
  {
    "event": "MENS SINGLE",
    "category": "MENS SINGLE",
    "page": 2,
    "totalPages": 17,
    "totalDocs": 166,
    "resultCount": 10
  },
  {
    "event": "MENS SINGLE",
    "category": "MENS SINGLE",
    "page": 3,
    "totalPages": 17,
    "totalDocs": 166,
    "resultCount": 10
  },
  {
    "event": "MENS SINGLE",
    "category": "MENS SINGLE",
    "page": 4,
    "totalPages": 17,
    "totalDocs": 166,
    "resultCount": 10
  },
  {
    "event": "MENS SINGLE",
    "category": "MENS SINGLE",
    "page": 5,
    "totalPages": 17,
    "totalDocs": 166,
    "resultCount": 10
  },
  {
    "event": "MENS SINGLE",
    "category": "MENS SINGLE",
    "page": 6,
    "totalPages": 17,
    "totalDocs": 166,
    "resultCount": 10
  },
  {
    "event": "MENS SINGLE",
    "category": "MENS SINGLE",
    "page": 7,
    "totalPages": 17,
    "totalDocs": 166,
    "resultCount": 10
  },
  {
    "event": "MENS SINGLE",
    "category": "MENS SINGLE",
    "page": 8,
    "totalPages": 17,
    "totalDocs": 166,
    "resultCount": 10
  },
  {
    "event": "MENS SINGLE",
    "category": "MENS SINGLE",
    "page": 9,
    "totalPages": 17,
    "totalDocs": 166,
    "resultCount": 10
  },
  {
    "event": "MENS SINGLE",
    "category": "MENS SINGLE",
    "page": 10,
    "totalPages": 17,
    "totalDocs": 166,
    "resultCount": 10
  },
  {
    "event": "MENS SINGLE",
    "category": "MENS SINGLE",
    "page": 11,
    "totalPages": 17,
    "totalDocs": 166,
    "resultCount": 10
  },
  {
    "event": "MENS SINGLE",
    "category": "MENS SINGLE",
    "page": 12,
    "totalPages": 17,
    "totalDocs": 166,
    "resultCount": 10
  },
  {
    "event": "MENS SINGLE",
    "category": "MENS SINGLE",
    "page": 13,
    "totalPages": 17,
    "totalDocs": 166,
    "resultCount": 10
  },
  {
    "event": "MENS SINGLE",
    "category": "MENS SINGLE",
    "page": 14,
    "totalPages": 17,
    "totalDocs": 166,
    "resultCount": 10
  },
  {
    "event": "MENS SINGLE",
    "category": "MENS SINGLE",
    "page": 15,
    "totalPages": 17,
    "totalDocs": 166,
    "resultCount": 10
  },
  {
    "event": "MENS SINGLE",
    "category": "MENS SINGLE",
    "page": 16,
    "totalPages": 17,
    "totalDocs": 166,
    "resultCount": 10
  },
  {
    "event": "MENS SINGLE",
    "category": "MENS SINGLE",
    "page": 17,
    "totalPages": 17,
    "totalDocs": 166,
    "resultCount": 6
  },
  {
    "event": "WOMENS SINGLE",
    "category": "OVERALL",
    "page": 1,
    "totalPages": 4,
    "totalDocs": 38,
    "resultCount": 10
  },
  {
    "event": "WOMENS SINGLE",
    "category": "OVERALL",
    "page": 2,
    "totalPages": 4,
    "totalDocs": 38,
    "resultCount": 10
  },
  {
    "event": "WOMENS SINGLE",
    "category": "OVERALL",
    "page": 3,
    "totalPages": 4,
    "totalDocs": 38,
    "resultCount": 10
  },
  {
    "event": "WOMENS SINGLE",
    "category": "OVERALL",
    "page": 4,
    "totalPages": 4,
    "totalDocs": 38,
    "resultCount": 8
  },
  {
    "event": "WOMENS SINGLE",
    "category": "WOMENS SINGLES",
    "page": 1,
    "totalPages": 4,
    "totalDocs": 38,
    "resultCount": 10
  },
  {
    "event": "WOMENS SINGLE",
    "category": "WOMENS SINGLES",
    "page": 2,
    "totalPages": 4,
    "totalDocs": 38,
    "resultCount": 10
  },
  {
    "event": "WOMENS SINGLE",
    "category": "WOMENS SINGLES",
    "page": 3,
    "totalPages": 4,
    "totalDocs": 38,
    "resultCount": 10
  },
  {
    "event": "WOMENS SINGLE",
    "category": "WOMENS SINGLES",
    "page": 4,
    "totalPages": 4,
    "totalDocs": 38,
    "resultCount": 8
  },
  {
    "event": "MENS DOUBLE",
    "category": "OVERALL",
    "page": 1,
    "totalPages": 14,
    "totalDocs": 136,
    "resultCount": 10
  },
  {
    "event": "MENS DOUBLE",
    "category": "OVERALL",
    "page": 2,
    "totalPages": 14,
    "totalDocs": 136,
    "resultCount": 10
  },
  {
    "event": "MENS DOUBLE",
    "category": "OVERALL",
    "page": 3,
    "totalPages": 14,
    "totalDocs": 136,
    "resultCount": 10
  },
  {
    "event": "MENS DOUBLE",
    "category": "OVERALL",
    "page": 4,
    "totalPages": 14,
    "totalDocs": 136,
    "resultCount": 10
  },
  {
    "event": "MENS DOUBLE",
    "category": "OVERALL",
    "page": 5,
    "totalPages": 14,
    "totalDocs": 136,
    "resultCount": 10
  },
  {
    "event": "MENS DOUBLE",
    "category": "OVERALL",
    "page": 6,
    "totalPages": 14,
    "totalDocs": 136,
    "resultCount": 10
  },
  {
    "event": "MENS DOUBLE",
    "category": "OVERALL",
    "page": 7,
    "totalPages": 14,
    "totalDocs": 136,
    "resultCount": 10
  },
  {
    "event": "MENS DOUBLE",
    "category": "OVERALL",
    "page": 8,
    "totalPages": 14,
    "totalDocs": 136,
    "resultCount": 10
  },
  {
    "event": "MENS DOUBLE",
    "category": "OVERALL",
    "page": 9,
    "totalPages": 14,
    "totalDocs": 136,
    "resultCount": 10
  },
  {
    "event": "MENS DOUBLE",
    "category": "OVERALL",
    "page": 10,
    "totalPages": 14,
    "totalDocs": 136,
    "resultCount": 10
  },
  {
    "event": "MENS DOUBLE",
    "category": "OVERALL",
    "page": 11,
    "totalPages": 14,
    "totalDocs": 136,
    "resultCount": 10
  },
  {
    "event": "MENS DOUBLE",
    "category": "OVERALL",
    "page": 12,
    "totalPages": 14,
    "totalDocs": 136,
    "resultCount": 10
  },
  {
    "event": "MENS DOUBLE",
    "category": "OVERALL",
    "page": 13,
    "totalPages": 14,
    "totalDocs": 136,
    "resultCount": 10
  },
  {
    "event": "MENS DOUBLE",
    "category": "OVERALL",
    "page": 14,
    "totalPages": 14,
    "totalDocs": 136,
    "resultCount": 6
  },
  {
    "event": "MENS DOUBLE",
    "category": "MENS DOUBLES",
    "page": 1,
    "totalPages": 14,
    "totalDocs": 136,
    "resultCount": 10
  },
  {
    "event": "MENS DOUBLE",
    "category": "MENS DOUBLES",
    "page": 2,
    "totalPages": 14,
    "totalDocs": 136,
    "resultCount": 10
  },
  {
    "event": "MENS DOUBLE",
    "category": "MENS DOUBLES",
    "page": 3,
    "totalPages": 14,
    "totalDocs": 136,
    "resultCount": 10
  },
  {
    "event": "MENS DOUBLE",
    "category": "MENS DOUBLES",
    "page": 4,
    "totalPages": 14,
    "totalDocs": 136,
    "resultCount": 10
  },
  {
    "event": "MENS DOUBLE",
    "category": "MENS DOUBLES",
    "page": 5,
    "totalPages": 14,
    "totalDocs": 136,
    "resultCount": 10
  },
  {
    "event": "MENS DOUBLE",
    "category": "MENS DOUBLES",
    "page": 6,
    "totalPages": 14,
    "totalDocs": 136,
    "resultCount": 10
  },
  {
    "event": "MENS DOUBLE",
    "category": "MENS DOUBLES",
    "page": 7,
    "totalPages": 14,
    "totalDocs": 136,
    "resultCount": 10
  },
  {
    "event": "MENS DOUBLE",
    "category": "MENS DOUBLES",
    "page": 8,
    "totalPages": 14,
    "totalDocs": 136,
    "resultCount": 10
  },
  {
    "event": "MENS DOUBLE",
    "category": "MENS DOUBLES",
    "page": 9,
    "totalPages": 14,
    "totalDocs": 136,
    "resultCount": 10
  },
  {
    "event": "MENS DOUBLE",
    "category": "MENS DOUBLES",
    "page": 10,
    "totalPages": 14,
    "totalDocs": 136,
    "resultCount": 10
  },
  {
    "event": "MENS DOUBLE",
    "category": "MENS DOUBLES",
    "page": 11,
    "totalPages": 14,
    "totalDocs": 136,
    "resultCount": 10
  },
  {
    "event": "MENS DOUBLE",
    "category": "MENS DOUBLES",
    "page": 12,
    "totalPages": 14,
    "totalDocs": 136,
    "resultCount": 10
  },
  {
    "event": "MENS DOUBLE",
    "category": "MENS DOUBLES",
    "page": 13,
    "totalPages": 14,
    "totalDocs": 136,
    "resultCount": 10
  },
  {
    "event": "MENS DOUBLE",
    "category": "MENS DOUBLES",
    "page": 14,
    "totalPages": 14,
    "totalDocs": 136,
    "resultCount": 6
  },
  {
    "event": "WOMENS DOUBLE",
    "category": "OVERALL",
    "page": 1,
    "totalPages": 9,
    "totalDocs": 82,
    "resultCount": 10
  },
  {
    "event": "WOMENS DOUBLE",
    "category": "OVERALL",
    "page": 2,
    "totalPages": 9,
    "totalDocs": 82,
    "resultCount": 10
  },
  {
    "event": "WOMENS DOUBLE",
    "category": "OVERALL",
    "page": 3,
    "totalPages": 9,
    "totalDocs": 82,
    "resultCount": 10
  },
  {
    "event": "WOMENS DOUBLE",
    "category": "OVERALL",
    "page": 4,
    "totalPages": 9,
    "totalDocs": 82,
    "resultCount": 10
  },
  {
    "event": "WOMENS DOUBLE",
    "category": "OVERALL",
    "page": 5,
    "totalPages": 9,
    "totalDocs": 82,
    "resultCount": 10
  },
  {
    "event": "WOMENS DOUBLE",
    "category": "OVERALL",
    "page": 6,
    "totalPages": 9,
    "totalDocs": 82,
    "resultCount": 10
  },
  {
    "event": "WOMENS DOUBLE",
    "category": "OVERALL",
    "page": 7,
    "totalPages": 9,
    "totalDocs": 82,
    "resultCount": 10
  },
  {
    "event": "WOMENS DOUBLE",
    "category": "OVERALL",
    "page": 8,
    "totalPages": 9,
    "totalDocs": 82,
    "resultCount": 10
  },
  {
    "event": "WOMENS DOUBLE",
    "category": "OVERALL",
    "page": 9,
    "totalPages": 9,
    "totalDocs": 82,
    "resultCount": 2
  },
  {
    "event": "WOMENS DOUBLE",
    "category": "WOMENS DOUBLES",
    "page": 1,
    "totalPages": 9,
    "totalDocs": 82,
    "resultCount": 10
  },
  {
    "event": "WOMENS DOUBLE",
    "category": "WOMENS DOUBLES",
    "page": 2,
    "totalPages": 9,
    "totalDocs": 82,
    "resultCount": 10
  },
  {
    "event": "WOMENS DOUBLE",
    "category": "WOMENS DOUBLES",
    "page": 3,
    "totalPages": 9,
    "totalDocs": 82,
    "resultCount": 10
  },
  {
    "event": "WOMENS DOUBLE",
    "category": "WOMENS DOUBLES",
    "page": 4,
    "totalPages": 9,
    "totalDocs": 82,
    "resultCount": 10
  },
  {
    "event": "WOMENS DOUBLE",
    "category": "WOMENS DOUBLES",
    "page": 5,
    "totalPages": 9,
    "totalDocs": 82,
    "resultCount": 10
  },
  {
    "event": "WOMENS DOUBLE",
    "category": "WOMENS DOUBLES",
    "page": 6,
    "totalPages": 9,
    "totalDocs": 82,
    "resultCount": 10
  },
  {
    "event": "WOMENS DOUBLE",
    "category": "WOMENS DOUBLES",
    "page": 7,
    "totalPages": 9,
    "totalDocs": 82,
    "resultCount": 10
  },
  {
    "event": "WOMENS DOUBLE",
    "category": "WOMENS DOUBLES",
    "page": 8,
    "totalPages": 9,
    "totalDocs": 82,
    "resultCount": 10
  },
  {
    "event": "WOMENS DOUBLE",
    "category": "WOMENS DOUBLES",
    "page": 9,
    "totalPages": 9,
    "totalDocs": 82,
    "resultCount": 2
  },
  {
    "event": "MENS LITE",
    "category": "OVERALL",
    "page": 1,
    "totalPages": 14,
    "totalDocs": 133,
    "resultCount": 10
  },
  {
    "event": "MENS LITE",
    "category": "OVERALL",
    "page": 2,
    "totalPages": 14,
    "totalDocs": 133,
    "resultCount": 10
  },
  {
    "event": "MENS LITE",
    "category": "OVERALL",
    "page": 3,
    "totalPages": 14,
    "totalDocs": 133,
    "resultCount": 10
  },
  {
    "event": "MENS LITE",
    "category": "OVERALL",
    "page": 4,
    "totalPages": 14,
    "totalDocs": 133,
    "resultCount": 10
  },
  {
    "event": "MENS LITE",
    "category": "OVERALL",
    "page": 5,
    "totalPages": 14,
    "totalDocs": 133,
    "resultCount": 10
  },
  {
    "event": "MENS LITE",
    "category": "OVERALL",
    "page": 6,
    "totalPages": 14,
    "totalDocs": 133,
    "resultCount": 10
  },
  {
    "event": "MENS LITE",
    "category": "OVERALL",
    "page": 7,
    "totalPages": 14,
    "totalDocs": 133,
    "resultCount": 10
  },
  {
    "event": "MENS LITE",
    "category": "OVERALL",
    "page": 8,
    "totalPages": 14,
    "totalDocs": 133,
    "resultCount": 10
  },
  {
    "event": "MENS LITE",
    "category": "OVERALL",
    "page": 9,
    "totalPages": 14,
    "totalDocs": 133,
    "resultCount": 10
  },
  {
    "event": "MENS LITE",
    "category": "OVERALL",
    "page": 10,
    "totalPages": 14,
    "totalDocs": 133,
    "resultCount": 10
  },
  {
    "event": "MENS LITE",
    "category": "OVERALL",
    "page": 11,
    "totalPages": 14,
    "totalDocs": 133,
    "resultCount": 10
  },
  {
    "event": "MENS LITE",
    "category": "OVERALL",
    "page": 12,
    "totalPages": 14,
    "totalDocs": 133,
    "resultCount": 10
  },
  {
    "event": "MENS LITE",
    "category": "OVERALL",
    "page": 13,
    "totalPages": 14,
    "totalDocs": 133,
    "resultCount": 10
  },
  {
    "event": "MENS LITE",
    "category": "OVERALL",
    "page": 14,
    "totalPages": 14,
    "totalDocs": 133,
    "resultCount": 3
  },
  {
    "event": "MENS LITE",
    "category": "MENS LITE",
    "page": 1,
    "totalPages": 14,
    "totalDocs": 133,
    "resultCount": 10
  },
  {
    "event": "MENS LITE",
    "category": "MENS LITE",
    "page": 2,
    "totalPages": 14,
    "totalDocs": 133,
    "resultCount": 10
  },
  {
    "event": "MENS LITE",
    "category": "MENS LITE",
    "page": 3,
    "totalPages": 14,
    "totalDocs": 133,
    "resultCount": 10
  },
  {
    "event": "MENS LITE",
    "category": "MENS LITE",
    "page": 4,
    "totalPages": 14,
    "totalDocs": 133,
    "resultCount": 10
  },
  {
    "event": "MENS LITE",
    "category": "MENS LITE",
    "page": 5,
    "totalPages": 14,
    "totalDocs": 133,
    "resultCount": 10
  },
  {
    "event": "MENS LITE",
    "category": "MENS LITE",
    "page": 6,
    "totalPages": 14,
    "totalDocs": 133,
    "resultCount": 10
  },
  {
    "event": "MENS LITE",
    "category": "MENS LITE",
    "page": 7,
    "totalPages": 14,
    "totalDocs": 133,
    "resultCount": 10
  },
  {
    "event": "MENS LITE",
    "category": "MENS LITE",
    "page": 8,
    "totalPages": 14,
    "totalDocs": 133,
    "resultCount": 10
  },
  {
    "event": "MENS LITE",
    "category": "MENS LITE",
    "page": 9,
    "totalPages": 14,
    "totalDocs": 133,
    "resultCount": 10
  },
  {
    "event": "MENS LITE",
    "category": "MENS LITE",
    "page": 10,
    "totalPages": 14,
    "totalDocs": 133,
    "resultCount": 10
  },
  {
    "event": "MENS LITE",
    "category": "MENS LITE",
    "page": 11,
    "totalPages": 14,
    "totalDocs": 133,
    "resultCount": 10
  },
  {
    "event": "MENS LITE",
    "category": "MENS LITE",
    "page": 12,
    "totalPages": 14,
    "totalDocs": 133,
    "resultCount": 10
  },
  {
    "event": "MENS LITE",
    "category": "MENS LITE",
    "page": 13,
    "totalPages": 14,
    "totalDocs": 133,
    "resultCount": 10
  },
  {
    "event": "MENS LITE",
    "category": "MENS LITE",
    "page": 14,
    "totalPages": 14,
    "totalDocs": 133,
    "resultCount": 3
  },
  {
    "event": "WOMENS LITE",
    "category": "OVERALL",
    "page": 1,
    "totalPages": 7,
    "totalDocs": 65,
    "resultCount": 10
  },
  {
    "event": "WOMENS LITE",
    "category": "OVERALL",
    "page": 2,
    "totalPages": 7,
    "totalDocs": 65,
    "resultCount": 10
  },
  {
    "event": "WOMENS LITE",
    "category": "OVERALL",
    "page": 3,
    "totalPages": 7,
    "totalDocs": 65,
    "resultCount": 10
  },
  {
    "event": "WOMENS LITE",
    "category": "OVERALL",
    "page": 4,
    "totalPages": 7,
    "totalDocs": 65,
    "resultCount": 10
  },
  {
    "event": "WOMENS LITE",
    "category": "OVERALL",
    "page": 5,
    "totalPages": 7,
    "totalDocs": 65,
    "resultCount": 10
  },
  {
    "event": "WOMENS LITE",
    "category": "OVERALL",
    "page": 6,
    "totalPages": 7,
    "totalDocs": 65,
    "resultCount": 10
  },
  {
    "event": "WOMENS LITE",
    "category": "OVERALL",
    "page": 7,
    "totalPages": 7,
    "totalDocs": 65,
    "resultCount": 5
  },
  {
    "event": "WOMENS LITE",
    "category": "WOMENS LITE",
    "page": 1,
    "totalPages": 7,
    "totalDocs": 65,
    "resultCount": 10
  },
  {
    "event": "WOMENS LITE",
    "category": "WOMENS LITE",
    "page": 2,
    "totalPages": 7,
    "totalDocs": 65,
    "resultCount": 10
  },
  {
    "event": "WOMENS LITE",
    "category": "WOMENS LITE",
    "page": 3,
    "totalPages": 7,
    "totalDocs": 65,
    "resultCount": 10
  },
  {
    "event": "WOMENS LITE",
    "category": "WOMENS LITE",
    "page": 4,
    "totalPages": 7,
    "totalDocs": 65,
    "resultCount": 10
  },
  {
    "event": "WOMENS LITE",
    "category": "WOMENS LITE",
    "page": 5,
    "totalPages": 7,
    "totalDocs": 65,
    "resultCount": 10
  },
  {
    "event": "WOMENS LITE",
    "category": "WOMENS LITE",
    "page": 6,
    "totalPages": 7,
    "totalDocs": 65,
    "resultCount": 10
  },
  {
    "event": "WOMENS LITE",
    "category": "WOMENS LITE",
    "page": 7,
    "totalPages": 7,
    "totalDocs": 65,
    "resultCount": 5
  },
  {
    "event": "TRAINERS WAVE",
    "category": "OVERALL",
    "page": 1,
    "totalPages": 3,
    "totalDocs": 25,
    "resultCount": 10
  },
  {
    "event": "TRAINERS WAVE",
    "category": "OVERALL",
    "page": 2,
    "totalPages": 3,
    "totalDocs": 25,
    "resultCount": 10
  },
  {
    "event": "TRAINERS WAVE",
    "category": "OVERALL",
    "page": 3,
    "totalPages": 3,
    "totalDocs": 25,
    "resultCount": 5
  },
  {
    "event": "TRAINERS WAVE",
    "category": "TRAINERS WAVE",
    "page": 1,
    "totalPages": 3,
    "totalDocs": 25,
    "resultCount": 10
  },
  {
    "event": "TRAINERS WAVE",
    "category": "TRAINERS WAVE",
    "page": 2,
    "totalPages": 3,
    "totalDocs": 25,
    "resultCount": 10
  },
  {
    "event": "TRAINERS WAVE",
    "category": "TRAINERS WAVE",
    "page": 3,
    "totalPages": 3,
    "totalDocs": 25,
    "resultCount": 5
  },
  {
    "event": "ADIDAS WAVE",
    "category": "OVERALL",
    "page": 1,
    "totalPages": 2,
    "totalDocs": 13,
    "resultCount": 10
  },
  {
    "event": "ADIDAS WAVE",
    "category": "OVERALL",
    "page": 2,
    "totalPages": 2,
    "totalDocs": 13,
    "resultCount": 3
  },
  {
    "event": "ADIDAS WAVE",
    "category": "ADIDAS WAVE",
    "page": 1,
    "totalPages": 2,
    "totalDocs": 13,
    "resultCount": 10
  },
  {
    "event": "ADIDAS WAVE",
    "category": "ADIDAS WAVE",
    "page": 2,
    "totalPages": 2,
    "totalDocs": 13,
    "resultCount": 3
  },
  {
    "event": "LEADERS CIRCUIT",
    "category": "OVERALL",
    "page": 1,
    "totalPages": 1,
    "totalDocs": 10,
    "resultCount": 10
  },
  {
    "event": "LEADERS CIRCUIT",
    "category": "LEADERS CIRCUIT",
    "page": 1,
    "totalPages": 1,
    "totalDocs": 10,
    "resultCount": 10
  }
]